,Presence,Day of week
2017-01-01,False,6
2017-01-02,True,0
2017-01-03,True,1
2017-01-04,True,2
2017-01-05,True,3
2017-01-06,True,4
2017-01-07,False,5
2017-01-08,False,6
2017-01-09,True,0
2017-01-10,True,1
2017-01-11,True,2
2017-01-12,True,3
2017-01-13,True,4
2017-01-14,False,5
2017-01-15,False,6
2017-01-16,True,0
2017-01-17,True,1
2017-01-18,True,2
2017-01-19,True,3
2017-01-20,True,4
2017-01-21,False,5
2017-01-22,False,6
2017-01-23,True,0
2017-01-24,True,1
2017-01-25,True,2
2017-01-26,True,3
2017-01-27,True,4
2017-01-28,False,5
2017-01-29,False,6
2017-01-30,True,0
2017-01-31,True,1
2017-02-01,True,2
2017-02-02,True,3
2017-02-03,True,4
2017-02-04,False,5
2017-02-05,False,6
2017-02-06,True,0
2017-02-07,True,1
2017-02-08,True,2
2017-02-09,True,3
2017-02-10,True,4
2017-02-11,False,5
2017-02-12,False,6
2017-02-13,True,0
2017-02-14,True,1
2017-02-15,True,2
2017-02-16,True,3
2017-02-17,True,4
2017-02-18,False,5
2017-02-19,False,6
2017-02-20,True,0
2017-02-21,True,1
2017-02-22,True,2
2017-02-23,True,3
2017-02-24,True,4
2017-02-25,False,5
2017-02-26,False,6
2017-02-27,True,0
2017-02-28,True,1
2017-03-01,True,2
2017-03-02,True,3
2017-03-03,True,4
2017-03-04,False,5
2017-03-05,False,6
2017-03-06,True,0
2017-03-07,True,1
2017-03-08,True,2
2017-03-09,True,3
2017-03-10,True,4
2017-03-11,False,5
2017-03-12,False,6
2017-03-13,True,0
2017-03-14,True,1
2017-03-15,True,2
2017-03-16,True,3
2017-03-17,True,4
2017-03-18,False,5
2017-03-19,False,6
2017-03-20,True,0
2017-03-21,True,1
2017-03-22,True,2
2017-03-23,True,3
2017-03-24,True,4
2017-03-25,False,5
2017-03-26,False,6
2017-03-27,True,0
2017-03-28,True,1
2017-03-29,True,2
2017-03-30,True,3
2017-03-31,True,4
2017-04-01,False,5
2017-04-02,False,6
2017-04-03,True,0
2017-04-04,True,1
2017-04-05,True,2
2017-04-06,True,3
2017-04-07,True,4
2017-04-08,False,5
2017-04-09,False,6
2017-04-10,True,0
2017-04-11,True,1
2017-04-12,True,2
2017-04-13,True,3
2017-04-14,True,4
2017-04-15,False,5
2017-04-16,False,6
2017-04-17,False,0
2017-04-18,True,1
2017-04-19,True,2
2017-04-20,False,3
2017-04-21,True,4
2017-04-22,False,5
2017-04-23,False,6
2017-04-24,True,0
2017-04-25,True,1
2017-04-26,True,2
2017-04-27,True,3
2017-04-28,True,4
2017-04-29,False,5
2017-04-30,False,6
2017-05-01,False,0
2017-05-02,True,1
2017-05-03,True,2
2017-05-04,True,3
2017-05-05,True,4
2017-05-06,False,5
2017-05-07,False,6
2017-05-08,False,0
2017-05-09,True,1
2017-05-10,True,2
2017-05-11,True,3
2017-05-12,True,4
2017-05-13,False,5
2017-05-14,False,6
2017-05-15,True,0
2017-05-16,True,1
2017-05-17,True,2
2017-05-18,True,3
2017-05-19,True,4
2017-05-20,False,5
2017-05-21,False,6
2017-05-22,True,0
2017-05-23,True,1
2017-05-24,True,2
2017-05-25,False,3
2017-05-26,True,4
2017-05-27,False,5
2017-05-28,False,6
2017-05-29,True,0
2017-05-30,True,1
2017-05-31,True,2
2017-06-01,True,3
2017-06-02,True,4
2017-06-03,False,5
2017-06-04,False,6
2017-06-05,False,0
2017-06-06,True,1
2017-06-07,True,2
2017-06-08,True,3
2017-06-09,True,4
2017-06-10,False,5
2017-06-11,False,6
2017-06-12,True,0
2017-06-13,True,1
2017-06-14,True,2
2017-06-15,True,3
2017-06-16,True,4
2017-06-17,False,5
2017-06-18,False,6
2017-06-19,True,0
2017-06-20,True,1
2017-06-21,True,2
2017-06-22,True,3
2017-06-23,True,4
2017-06-24,False,5
2017-06-25,False,6
2017-06-26,True,0
2017-06-27,True,1
2017-06-28,True,2
2017-06-29,True,3
2017-06-30,True,4
2017-07-01,False,5
2017-07-02,False,6
2017-07-03,True,0
2017-07-04,True,1
2017-07-05,True,2
2017-07-06,True,3
2017-07-07,True,4
2017-07-08,False,5
2017-07-09,False,6
2017-07-10,True,0
2017-07-11,True,1
2017-07-12,True,2
2017-07-13,True,3
2017-07-14,False,4
2017-07-15,False,5
2017-07-16,False,6
2017-07-17,True,0
2017-07-18,True,1
2017-07-19,True,2
2017-07-20,True,3
2017-07-21,True,4
2017-07-22,False,5
2017-07-23,False,6
2017-07-24,False,0
2017-07-25,False,1
2017-07-26,False,2
2017-07-27,True,3
2017-07-28,True,4
2017-07-29,False,5
2017-07-30,False,6
2017-07-31,False,0
2017-08-01,False,1
2017-08-02,False,2
2017-08-03,False,3
2017-08-04,False,4
2017-08-05,False,5
2017-08-06,False,6
2017-08-07,False,0
2017-08-08,False,1
2017-08-09,False,2
2017-08-10,False,3
2017-08-11,False,4
2017-08-12,False,5
2017-08-13,False,6
2017-08-14,False,0
2017-08-15,False,1
2017-08-16,True,2
2017-08-17,True,3
2017-08-18,True,4
2017-08-19,False,5
2017-08-20,False,6
2017-08-21,False,0
2017-08-22,False,1
2017-08-23,True,2
2017-08-24,True,3
2017-08-25,True,4
2017-08-26,False,5
2017-08-27,False,6
2017-08-28,True,0
2017-08-29,True,1
2017-08-30,True,2
2017-08-31,True,3
2017-09-01,True,4
2017-09-02,False,5
2017-09-03,False,6
2017-09-04,True,0
2017-09-05,True,1
2017-09-06,True,2
2017-09-07,True,3
2017-09-08,True,4
2017-09-09,False,5
2017-09-10,False,6
2017-09-11,True,0
2017-09-12,True,1
2017-09-13,True,2
2017-09-14,True,3
2017-09-15,True,4
2017-09-16,False,5
2017-09-17,False,6
2017-09-18,True,0
2017-09-19,True,1
2017-09-20,True,2
2017-09-21,True,3
2017-09-22,True,4
2017-09-23,False,5
2017-09-24,False,6
2017-09-25,True,0
2017-09-26,True,1
2017-09-27,True,2
2017-09-28,True,3
2017-09-29,True,4
2017-09-30,False,5
2017-10-01,False,6
2017-10-02,True,0
2017-10-03,True,1
2017-10-04,True,2
2017-10-05,True,3
2017-10-06,True,4
2017-10-07,False,5
2017-10-08,False,6
2017-10-09,True,0
2017-10-10,True,1
2017-10-11,True,2
2017-10-12,True,3
2017-10-13,True,4
2017-10-14,False,5
2017-10-15,False,6
2017-10-16,True,0
2017-10-17,True,1
2017-10-18,True,2
2017-10-19,True,3
2017-10-20,True,4
2017-10-21,False,5
2017-10-22,False,6
2017-10-23,True,0
2017-10-24,True,1
2017-10-25,True,2
2017-10-26,True,3
2017-10-27,True,4
2017-10-28,False,5
2017-10-29,False,6
2017-10-30,True,0
2017-10-31,True,1
2017-11-01,False,2
2017-11-02,True,3
2017-11-03,True,4
2017-11-04,False,5
2017-11-05,False,6
2017-11-06,True,0
2017-11-07,True,1
2017-11-08,True,2
2017-11-09,True,3
2017-11-10,True,4
2017-11-11,False,5
2017-11-12,False,6
2017-11-13,True,0
2017-11-14,True,1
2017-11-15,True,2
2017-11-16,True,3
2017-11-17,True,4
2017-11-18,False,5
2017-11-19,False,6
2017-11-20,True,0
2017-11-21,True,1
2017-11-22,True,2
2017-11-23,True,3
2017-11-24,True,4
2017-11-25,False,5
2017-11-26,False,6
2017-11-27,True,0
2017-11-28,True,1
2017-11-29,True,2
2017-11-30,True,3
2017-12-01,True,4
2017-12-02,False,5
2017-12-03,False,6
2017-12-04,True,0
2017-12-05,True,1
2017-12-06,True,2
2017-12-07,True,3
2017-12-08,True,4
2017-12-09,False,5
2017-12-10,False,6
2017-12-11,True,0
2017-12-12,True,1
2017-12-13,True,2
2017-12-14,True,3
2017-12-15,True,4
2017-12-16,False,5
2017-12-17,False,6
2017-12-18,True,0
2017-12-19,True,1
2017-12-20,True,2
2017-12-21,True,3
2017-12-22,True,4
2017-12-23,False,5
2017-12-24,False,6
2017-12-25,False,0
2017-12-26,False,1
2017-12-27,False,2
2017-12-28,False,3
2017-12-29,False,4
2017-12-30,False,5
2017-12-31,False,6
2018-01-01,False,0
2018-01-02,True,1
2018-01-03,True,2
2018-01-04,True,3
2018-01-05,True,4
2018-01-06,False,5
2018-01-07,False,6
2018-01-08,True,0
2018-01-09,True,1
2018-01-10,True,2
2018-01-11,True,3
2018-01-12,True,4
2018-01-13,False,5
2018-01-14,False,6
2018-01-15,True,0
2018-01-16,True,1
2018-01-17,True,2
2018-01-18,True,3
2018-01-19,True,4
2018-01-20,False,5
2018-01-21,False,6
2018-01-22,True,0
2018-01-23,True,1
2018-01-24,True,2
2018-01-25,True,3
2018-01-26,True,4
2018-01-27,False,5
2018-01-28,False,6
2018-01-29,True,0
2018-01-30,True,1
2018-01-31,True,2
2018-02-01,True,3
2018-02-02,True,4
2018-02-03,False,5
2018-02-04,False,6
2018-02-05,True,0
2018-02-06,True,1
2018-02-07,True,2
2018-02-08,True,3
2018-02-09,True,4
2018-02-10,False,5
2018-02-11,False,6
2018-02-12,True,0
2018-02-13,True,1
2018-02-14,True,2
2018-02-15,True,3
2018-02-16,True,4
2018-02-17,False,5
2018-02-18,False,6
2018-02-19,True,0
2018-02-20,True,1
2018-02-21,True,2
2018-02-22,True,3
2018-02-23,True,4
2018-02-24,False,5
2018-02-25,False,6
2018-02-26,True,0
2018-02-27,True,1
2018-02-28,True,2
2018-03-01,True,3
2018-03-02,True,4
2018-03-03,True,5
2018-03-04,False,6
2018-03-05,True,0
2018-03-06,True,1
2018-03-07,True,2
2018-03-08,True,3
2018-03-09,True,4
2018-03-10,False,5
2018-03-11,False,6
2018-03-12,True,0
2018-03-13,True,1
2018-03-14,True,2
2018-03-15,True,3
2018-03-16,True,4
2018-03-17,False,5
2018-03-18,False,6
2018-03-19,True,0
2018-03-20,True,1
2018-03-21,True,2
2018-03-22,True,3
2018-03-23,True,4
2018-03-24,False,5
2018-03-25,False,6
2018-03-26,True,0
2018-03-27,True,1
2018-03-28,True,2
2018-03-29,True,3
2018-03-30,True,4
2018-03-31,False,5
2018-04-01,False,6
2018-04-02,False,0
2018-04-03,True,1
2018-04-04,True,2
2018-04-05,True,3
2018-04-06,True,4
2018-04-07,False,5
2018-04-08,False,6
2018-04-09,True,0
2018-04-10,True,1
2018-04-11,True,2
2018-04-12,True,3
2018-04-13,True,4
2018-04-14,False,5
2018-04-15,False,6
2018-04-16,True,0
2018-04-17,True,1
2018-04-18,False,2
2018-04-19,True,3
2018-04-20,True,4
2018-04-21,False,5
2018-04-22,False,6
2018-04-23,True,0
2018-04-24,True,1
2018-04-25,True,2
2018-04-26,True,3
2018-04-27,True,4
2018-04-28,False,5
2018-04-29,False,6
2018-04-30,True,0
2018-05-01,False,1
2018-05-02,True,2
2018-05-03,True,3
2018-05-04,True,4
2018-05-05,False,5
2018-05-06,False,6
2018-05-07,True,0
2018-05-08,False,1
2018-05-09,True,2
2018-05-10,False,3
2018-05-11,False,4
2018-05-12,False,5
2018-05-13,False,6
2018-05-14,True,0
2018-05-15,True,1
2018-05-16,True,2
2018-05-17,True,3
2018-05-18,True,4
2018-05-19,False,5
2018-05-20,False,6
2018-05-21,False,0
2018-05-22,False,1
2018-05-23,False,2
2018-05-24,False,3
2018-05-25,False,4
2018-05-26,False,5
2018-05-27,False,6
2018-05-28,True,0
2018-05-29,True,1
2018-05-30,True,2
2018-05-31,True,3
2018-06-01,True,4
2018-06-02,False,5
2018-06-03,False,6
2018-06-04,True,0
2018-06-05,True,1
2018-06-06,True,2
2018-06-07,True,3
2018-06-08,True,4
2018-06-09,False,5
2018-06-10,False,6
2018-06-11,True,0
2018-06-12,True,1
2018-06-13,True,2
2018-06-14,True,3
2018-06-15,True,4
2018-06-16,False,5
2018-06-17,False,6
2018-06-18,True,0
2018-06-19,True,1
2018-06-20,True,2
2018-06-21,True,3
2018-06-22,True,4
2018-06-23,False,5
2018-06-24,False,6
2018-06-25,True,0
2018-06-26,True,1
2018-06-27,True,2
2018-06-28,True,3
2018-06-29,True,4
2018-06-30,False,5
2018-07-01,False,6
2018-07-02,True,0
2018-07-03,True,1
2018-07-04,True,2
2018-07-05,True,3
2018-07-06,True,4
2018-07-07,False,5
2018-07-08,False,6
2018-07-09,True,0
2018-07-10,True,1
2018-07-11,False,2
2018-07-12,True,3
2018-07-13,True,4
2018-07-14,False,5
2018-07-15,False,6
2018-07-16,True,0
2018-07-17,True,1
2018-07-18,False,2
2018-07-19,True,3
2018-07-20,True,4
2018-07-21,False,5
2018-07-22,False,6
2018-07-23,True,0
2018-07-24,True,1
2018-07-25,True,2
2018-07-26,True,3
2018-07-27,True,4
2018-07-28,False,5
2018-07-29,False,6
2018-07-30,False,0
2018-07-31,False,1
2018-08-01,True,2
2018-08-02,True,3
2018-08-03,False,4
2018-08-04,False,5
2018-08-05,False,6
2018-08-06,False,0
2018-08-07,True,1
2018-08-08,True,2
2018-08-09,False,3
2018-08-10,False,4
2018-08-11,False,5
2018-08-12,False,6
2018-08-13,False,0
2018-08-14,False,1
2018-08-15,False,2
2018-08-16,False,3
2018-08-17,False,4
2018-08-18,False,5
2018-08-19,False,6
2018-08-20,True,0
2018-08-21,True,1
2018-08-22,True,2
2018-08-23,True,3
2018-08-24,True,4
2018-08-25,False,5
2018-08-26,False,6
2018-08-27,True,0
2018-08-28,True,1
2018-08-29,True,2
2018-08-30,True,3
2018-08-31,True,4
2018-09-01,False,5
2018-09-02,False,6
2018-09-03,True,0
2018-09-04,True,1
2018-09-05,True,2
2018-09-06,True,3
2018-09-07,True,4
2018-09-08,False,5
2018-09-09,False,6
2018-09-10,True,0
2018-09-11,True,1
2018-09-12,True,2
2018-09-13,True,3
2018-09-14,True,4
2018-09-15,False,5
2018-09-16,False,6
2018-09-17,True,0
2018-09-18,True,1
2018-09-19,True,2
2018-09-20,True,3
2018-09-21,True,4
2018-09-22,False,5
2018-09-23,False,6
2018-09-24,True,0
2018-09-25,True,1
2018-09-26,True,2
2018-09-27,True,3
2018-09-28,True,4
2018-09-29,True,5
2018-09-30,False,6
2018-10-01,True,0
2018-10-02,True,1
2018-10-03,False,2
2018-10-04,True,3
2018-10-05,True,4
2018-10-06,False,5
2018-10-07,False,6
2018-10-08,True,0
2018-10-09,True,1
2018-10-10,True,2
2018-10-11,True,3
2018-10-12,True,4
2018-10-13,True,5
2018-10-14,False,6
2018-10-15,True,0
2018-10-16,True,1
2018-10-17,True,2
2018-10-18,False,3
2018-10-19,True,4
2018-10-20,False,5
2018-10-21,False,6
2018-10-22,True,0
2018-10-23,True,1
2018-10-24,True,2
2018-10-25,True,3
2018-10-26,True,4
2018-10-27,False,5
2018-10-28,False,6
2018-10-29,True,0
2018-10-30,True,1
2018-10-31,True,2
2018-11-01,False,3
2018-11-02,True,4
2018-11-03,False,5
2018-11-04,False,6
2018-11-05,True,0
2018-11-06,True,1
2018-11-07,True,2
2018-11-08,True,3
2018-11-09,True,4
2018-11-10,False,5
2018-11-11,False,6
2018-11-12,True,0
2018-11-13,True,1
2018-11-14,True,2
2018-11-15,True,3
2018-11-16,True,4
2018-11-17,False,5
2018-11-18,False,6
2018-11-19,True,0
2018-11-20,True,1
2018-11-21,True,2
2018-11-22,True,3
2018-11-23,True,4
2018-11-24,False,5
2018-11-25,False,6
2018-11-26,True,0
2018-11-27,True,1
2018-11-28,True,2
2018-11-29,True,3
2018-11-30,True,4
2018-12-01,False,5
2018-12-02,False,6
2018-12-03,True,0
2018-12-04,True,1
2018-12-05,True,2
2018-12-06,True,3
2018-12-07,True,4
2018-12-08,False,5
2018-12-09,False,6
2018-12-10,True,0
2018-12-11,True,1
2018-12-12,True,2
2018-12-13,True,3
2018-12-14,True,4
2018-12-15,False,5
2018-12-16,False,6
2018-12-17,True,0
2018-12-18,True,1
2018-12-19,True,2
2018-12-20,True,3
2018-12-21,True,4
2018-12-22,False,5
2018-12-23,False,6
2018-12-24,False,0
2018-12-25,False,1
2018-12-26,False,2
2018-12-27,False,3
2018-12-28,False,4
2018-12-29,False,5
2018-12-30,False,6
2018-12-31,False,0
2019-01-01,False,1
2019-01-02,False,2
2019-01-03,True,3
2019-01-04,True,4
2019-01-05,False,5
2019-01-06,False,6
2019-01-07,True,0
2019-01-08,True,1
2019-01-09,True,2
2019-01-10,True,3
2019-01-11,True,4
2019-01-12,False,5
2019-01-13,False,6
2019-01-14,True,0
2019-01-15,True,1
2019-01-16,True,2
2019-01-17,True,3
2019-01-18,True,4
2019-01-19,False,5
2019-01-20,False,6
2019-01-21,True,0
2019-01-22,True,1
2019-01-23,True,2
2019-01-24,True,3
2019-01-25,True,4
2019-01-26,False,5
2019-01-27,False,6
2019-01-28,True,0
2019-01-29,True,1
2019-01-30,True,2
2019-01-31,True,3
2019-02-01,True,4
2019-02-02,False,5
2019-02-03,False,6
2019-02-04,True,0
2019-02-05,True,1
2019-02-06,True,2
2019-02-07,True,3
2019-02-08,True,4
2019-02-09,False,5
2019-02-10,False,6
2019-02-11,True,0
2019-02-12,True,1
2019-02-13,True,2
2019-02-14,True,3
2019-02-15,True,4
2019-02-16,True,5
2019-02-17,False,6
2019-02-18,True,0
2019-02-19,True,1
2019-02-20,True,2
2019-02-21,True,3
2019-02-22,True,4
2019-02-23,False,5
2019-02-24,False,6
2019-02-25,True,0
2019-02-26,True,1
2019-02-27,True,2
2019-02-28,True,3
2019-03-01,True,4
2019-03-02,False,5
2019-03-03,False,6
2019-03-04,True,0
2019-03-05,True,1
2019-03-06,True,2
2019-03-07,True,3
2019-03-08,True,4
2019-03-09,False,5
2019-03-10,False,6
2019-03-11,True,0
2019-03-12,True,1
2019-03-13,True,2
2019-03-14,True,3
2019-03-15,True,4
2019-03-16,False,5
2019-03-17,False,6
2019-03-18,True,0
2019-03-19,True,1
2019-03-20,True,2
2019-03-21,True,3
2019-03-22,True,4
2019-03-23,False,5
2019-03-24,False,6
2019-03-25,True,0
2019-03-26,True,1
2019-03-27,True,2
2019-03-28,True,3
2019-03-29,True,4
2019-03-30,False,5
2019-03-31,False,6
2019-04-01,True,0
2019-04-02,True,1
2019-04-03,True,2
2019-04-04,True,3
2019-04-05,True,4
2019-04-06,False,5
2019-04-07,False,6
2019-04-08,True,0
2019-04-09,True,1
2019-04-10,True,2
2019-04-11,True,3
2019-04-12,True,4
2019-04-13,False,5
2019-04-14,False,6
2019-04-15,True,0
2019-04-16,True,1
2019-04-17,True,2
2019-04-18,True,3
2019-04-19,True,4
2019-04-20,False,5
2019-04-21,False,6
2019-04-22,False,0
2019-04-23,True,1
2019-04-24,True,2
2019-04-25,False,3
2019-04-26,True,4
2019-04-27,False,5
2019-04-28,False,6
2019-04-29,True,0
2019-04-30,True,1
2019-05-01,False,2
2019-05-02,True,3
2019-05-03,True,4
2019-05-04,False,5
2019-05-05,False,6
2019-05-06,True,0
2019-05-07,True,1
2019-05-08,False,2
2019-05-09,True,3
2019-05-10,True,4
2019-05-11,False,5
2019-05-12,False,6
2019-05-13,True,0
2019-05-14,True,1
2019-05-15,True,2
2019-05-16,True,3
2019-05-17,True,4
2019-05-18,False,5
2019-05-19,False,6
2019-05-20,True,0
2019-05-21,True,1
2019-05-22,True,2
2019-05-23,True,3
2019-05-24,True,4
2019-05-25,False,5
2019-05-26,False,6
2019-05-27,True,0
2019-05-28,True,1
2019-05-29,True,2
2019-05-30,False,3
2019-05-31,False,4
2019-06-01,False,5
2019-06-02,False,6
2019-06-03,False,0
2019-06-04,True,1
2019-06-05,True,2
2019-06-06,True,3
2019-06-07,True,4
2019-06-08,False,5
2019-06-09,False,6
2019-06-10,False,0
2019-06-11,True,1
2019-06-12,True,2
2019-06-13,True,3
2019-06-14,True,4
2019-06-15,False,5
2019-06-16,False,6
2019-06-17,True,0
2019-06-18,True,1
2019-06-19,True,2
2019-06-20,True,3
2019-06-21,True,4
2019-06-22,False,5
2019-06-23,False,6
2019-06-24,True,0
2019-06-25,True,1
2019-06-26,True,2
2019-06-27,True,3
2019-06-28,True,4
2019-06-29,False,5
2019-06-30,False,6
2019-07-01,True,0
2019-07-02,True,1
2019-07-03,False,2
2019-07-04,False,3
2019-07-05,False,4
2019-07-06,False,5
2019-07-07,False,6
2019-07-08,True,0
2019-07-09,False,1
2019-07-10,False,2
2019-07-11,False,3
2019-07-12,True,4
2019-07-13,False,5
2019-07-14,False,6
2019-07-15,False,0
2019-07-16,False,1
2019-07-17,False,2
2019-07-18,False,3
2019-07-19,False,4
2019-07-20,False,5
2019-07-21,False,6
2019-07-22,False,0
2019-07-23,False,1
2019-07-24,True,2
2019-07-25,False,3
2019-07-26,True,4
2019-07-27,False,5
2019-07-28,False,6
2019-07-29,False,0
2019-07-30,False,1
2019-07-31,False,2
2019-08-01,False,3
2019-08-02,False,4
2019-08-03,False,5
2019-08-04,False,6
2019-08-05,False,0
2019-08-06,False,1
2019-08-07,False,2
2019-08-08,False,3
2019-08-09,False,4
2019-08-10,False,5
2019-08-11,False,6
2019-08-12,False,0
2019-08-13,False,1
2019-08-14,False,2
2019-08-15,False,3
2019-08-16,False,4
2019-08-17,False,5
2019-08-18,False,6
2019-08-19,False,0
2019-08-20,False,1
2019-08-21,False,2
2019-08-22,False,3
2019-08-23,False,4
2019-08-24,False,5
2019-08-25,False,6
2019-08-26,False,0
2019-08-27,False,1
2019-08-28,False,2
2019-08-29,True,3
2019-08-30,True,4
2019-08-31,False,5
2019-09-01,False,6
2019-09-02,True,0
2019-09-03,True,1
2019-09-04,True,2
2019-09-05,True,3
2019-09-06,True,4
2019-09-07,False,5
2019-09-08,False,6
2019-09-09,True,0
2019-09-10,True,1
2019-09-11,True,2
2019-09-12,True,3
2019-09-13,True,4
2019-09-14,False,5
2019-09-15,False,6
2019-09-16,True,0
2019-09-17,True,1
2019-09-18,True,2
2019-09-19,True,3
2019-09-20,True,4
2019-09-21,False,5
2019-09-22,False,6
2019-09-23,True,0
2019-09-24,True,1
2019-09-25,True,2
2019-09-26,True,3
2019-09-27,True,4
2019-09-28,False,5
2019-09-29,False,6
2019-09-30,True,0
2019-10-01,True,1
2019-10-02,True,2
2019-10-03,True,3
2019-10-04,True,4
2019-10-05,False,5
2019-10-06,False,6
2019-10-07,True,0
2019-10-08,True,1
2019-10-09,True,2
2019-10-10,True,3
2019-10-11,True,4
2019-10-12,False,5
2019-10-13,False,6
2019-10-14,True,0
2019-10-15,True,1
2019-10-16,True,2
2019-10-17,True,3
2019-10-18,True,4
2019-10-19,False,5
2019-10-20,False,6
2019-10-21,True,0
2019-10-22,True,1
2019-10-23,True,2
2019-10-24,True,3
2019-10-25,True,4
2019-10-26,False,5
2019-10-27,False,6
2019-10-28,True,0
2019-10-29,True,1
2019-10-30,True,2
2019-10-31,True,3
2019-11-01,False,4
2019-11-02,False,5
2019-11-03,False,6
2019-11-04,True,0
2019-11-05,True,1
2019-11-06,True,2
2019-11-07,True,3
2019-11-08,True,4
2019-11-09,False,5
2019-11-10,False,6
2019-11-11,False,0
2019-11-12,True,1
2019-11-13,True,2
2019-11-14,True,3
2019-11-15,True,4
2019-11-16,False,5
2019-11-17,False,6
2019-11-18,True,0
2019-11-19,True,1
2019-11-20,True,2
2019-11-21,True,3
2019-11-22,True,4
2019-11-23,False,5
2019-11-24,False,6
2019-11-25,True,0
2019-11-26,True,1
2019-11-27,True,2
2019-11-28,True,3
2019-11-29,True,4
2019-11-30,False,5
2019-12-01,False,6
2019-12-02,True,0
2019-12-03,True,1
2019-12-04,True,2
2019-12-05,True,3
2019-12-06,True,4
2019-12-07,False,5
2019-12-08,False,6
2019-12-09,True,0
2019-12-10,True,1
2019-12-11,True,2
2019-12-12,True,3
2019-12-13,True,4
2019-12-14,False,5
2019-12-15,False,6
2019-12-16,True,0
2019-12-17,True,1
2019-12-18,False,2
2019-12-19,True,3
2019-12-20,False,4
2019-12-21,False,5
2019-12-22,False,6
2019-12-23,False,0
2019-12-24,False,1
2019-12-25,False,2
2019-12-26,False,3
2019-12-27,False,4
2019-12-28,False,5
2019-12-29,False,6
2019-12-30,False,0
2019-12-31,False,1
